%YAML 1.1
%TAG !u! tag:unity3d.com,2011:
--- !u!74 &7400000
AnimationClip:
  m_ObjectHideFlags: 0
  m_CorrespondingSourceObject: {fileID: 0}
  m_PrefabInstance: {fileID: 0}
  m_PrefabAsset: {fileID: 0}
  m_Name: Star2
  serializedVersion: 6
  m_Legacy: 0
  m_Compressed: 0
  m_UseHighQualityCurve: 1
  m_RotationCurves: []
  m_CompressedRotationCurves: []
  m_EulerCurves: []
  m_PositionCurves: []
  m_ScaleCurves: []
  m_FloatCurves: []
  m_PPtrCurves:
  - curve:
    - time: 0
      value: {fileID: 21300000, guid: 8765ada07b6a99c41a4ee869fa45d3e9, type: 3}
    - time: 0.16666667
      value: {fileID: 21300000, guid: 72d9cfef0e8a5304e8da35a351d35147, type: 3}
    - time: 0.31666666
      value: {fileID: 21300000, guid: 875ea6a7820720446aea3ba973ab79bb, type: 3}
    - time: 0.48333332
      value: {fileID: 21300000, guid: c0bac7c89f43b9447b8836b27d56d50b, type: 3}
    - time: 0.6333333
      value: {fileID: 21300000, guid: 979b9159de900c545bf441b102f106e9, type: 3}
    - time: 0.8
      value: {fileID: 21300000, guid: d9d2a81b20a1ec3418c20c81c797d36f, type: 3}
    - time: 0.95
      value: {fileID: 21300000, guid: 9cce5598e09ba4446a1ff5297ab2a976, type: 3}
    - time: 1.1166667
      value: {fileID: 21300000, guid: 59512fdcff9ceec429738ba3aaacb0df, type: 3}
    attribute: m_Sprite
    path: 
    classID: 212
    script: {fileID: 0}
  m_SampleRate: 60
  m_WrapMode: 0
  m_Bounds:
    m_Center: {x: 0, y: 0, z: 0}
    m_Extent: {x: 0, y: 0, z: 0}
  m_ClipBindingConstant:
    genericBindings:
    - serializedVersion: 2
      path: 0
      attribute: 0
      script: {fileID: 0}
      typeID: 212
      customType: 23
      isPPtrCurve: 1
    pptrCurveMapping:
    - {fileID: 21300000, guid: 8765ada07b6a99c41a4ee869fa45d3e9, type: 3}
    - {fileID: 21300000, guid: 72d9cfef0e8a5304e8da35a351d35147, type: 3}
    - {fileID: 21300000, guid: 875ea6a7820720446aea3ba973ab79bb, type: 3}
    - {fileID: 21300000, guid: c0bac7c89f43b9447b8836b27d56d50b, type: 3}
    - {fileID: 21300000, guid: 979b9159de900c545bf441b102f106e9, type: 3}
    - {fileID: 21300000, guid: d9d2a81b20a1ec3418c20c81c797d36f, type: 3}
    - {fileID: 21300000, guid: 9cce5598e09ba4446a1ff5297ab2a976, type: 3}
    - {fileID: 21300000, guid: 59512fdcff9ceec429738ba3aaacb0df, type: 3}
  m_AnimationClipSettings:
    serializedVersion: 2
    m_AdditiveReferencePoseClip: {fileID: 0}
    m_AdditiveReferencePoseTime: 0
    m_StartTime: 0
    m_StopTime: 1.1333333
    m_OrientationOffsetY: 0
    m_Level: 0
    m_CycleOffset: 0
    m_HasAdditiveReferencePose: 0
    m_LoopTime: 1
    m_LoopBlend: 0
    m_LoopBlendOrientation: 0
    m_LoopBlendPositionY: 0
    m_LoopBlendPositionXZ: 0
    m_KeepOriginalOrientation: 0
    m_KeepOriginalPositionY: 1
    m_KeepOriginalPositionXZ: 0
    m_HeightFromFeet: 0
    m_Mirror: 0
  m_EditorCurves: []
  m_EulerEditorCurves: []
  m_HasGenericRootTransform: 0
  m_HasMotionFloatCurves: 0
  m_Events: []
