%YAML 1.1
%TAG !u! tag:unity3d.com,2011:
--- !u!114 &11400000
MonoBehaviour:
  m_ObjectHideFlags: 0
  m_CorrespondingSourceObject: {fileID: 0}
  m_PrefabInstance: {fileID: 0}
  m_PrefabAsset: {fileID: 0}
  m_GameObject: {fileID: 0}
  m_Enabled: 1
  m_EditorHideFlags: 0
  m_Script: {fileID: 11500000, guid: 362af01cc92033448ab3f4b414d4895c, type: 3}
  m_Name: Background
  m_EditorClassIdentifier: 
  ImageLanguage:
  - {fileID: 21300000, guid: 95ccdc3512e85824abe0bb2828d6a22b, type: 3}
  - {fileID: 21300000, guid: 801a47645b9440e4bac69d527abfaf76, type: 3}
  - {fileID: 21300000, guid: 96fa96f7c4d01254ba7de22dedb4b5a4, type: 3}
  PressImage: []
