%YAML 1.1
%TAG !u! tag:unity3d.com,2011:
--- !u!74 &7400000
AnimationClip:
  m_ObjectHideFlags: 0
  m_CorrespondingSourceObject: {fileID: 0}
  m_PrefabInstance: {fileID: 0}
  m_PrefabAsset: {fileID: 0}
  m_Name: Loading
  serializedVersion: 6
  m_Legacy: 0
  m_Compressed: 0
  m_UseHighQualityCurve: 1
  m_RotationCurves: []
  m_CompressedRotationCurves: []
  m_EulerCurves: []
  m_PositionCurves: []
  m_ScaleCurves: []
  m_FloatCurves: []
  m_PPtrCurves:
  - curve:
    - time: 0
      value: {fileID: 21300000, guid: 9a6002527346ce64f9525ef858025fbf, type: 3}
    - time: 0.05
      value: {fileID: 21300000, guid: 9a6002527346ce64f9525ef858025fbf, type: 3}
    - time: 0.1
      value: {fileID: 21300000, guid: 0bf2c803dddc5d147b70af5cbc9dcc75, type: 3}
    - time: 0.15
      value: {fileID: 21300000, guid: 1a03188f8e97a8648a7947a7f6240094, type: 3}
    - time: 0.2
      value: {fileID: 21300000, guid: 4a5db22f909cee740941753cd1d26a13, type: 3}
    - time: 0.25
      value: {fileID: 21300000, guid: b88220a0f73e3794ab43f5732aac639c, type: 3}
    - time: 0.3
      value: {fileID: 21300000, guid: b51ef70d9b1820c46afccf51abbf7ab8, type: 3}
    - time: 0.35
      value: {fileID: 21300000, guid: 194c6271a6fcf9545bbeab6dd50532e3, type: 3}
    - time: 0.4
      value: {fileID: 21300000, guid: b90c19dc7527a1d4697d9eac4a9aa9c2, type: 3}
    - time: 0.45
      value: {fileID: 21300000, guid: ac72de9a1e51b4f4ea6ed6ae07c5e087, type: 3}
    - time: 0.5
      value: {fileID: 21300000, guid: 4a5db22f909cee740941753cd1d26a13, type: 3}
    attribute: m_Sprite
    path: 
    classID: 114
    script: {fileID: 11500000, guid: fe87c0e1cc204ed48ad3b37840f39efc, type: 3}
  m_SampleRate: 60
  m_WrapMode: 0
  m_Bounds:
    m_Center: {x: 0, y: 0, z: 0}
    m_Extent: {x: 0, y: 0, z: 0}
  m_ClipBindingConstant:
    genericBindings:
    - serializedVersion: 2
      path: 0
      attribute: 2015549526
      script: {fileID: 11500000, guid: fe87c0e1cc204ed48ad3b37840f39efc, type: 3}
      typeID: 114
      customType: 0
      isPPtrCurve: 1
    pptrCurveMapping:
    - {fileID: 21300000, guid: 9a6002527346ce64f9525ef858025fbf, type: 3}
    - {fileID: 21300000, guid: 9a6002527346ce64f9525ef858025fbf, type: 3}
    - {fileID: 21300000, guid: 0bf2c803dddc5d147b70af5cbc9dcc75, type: 3}
    - {fileID: 21300000, guid: 1a03188f8e97a8648a7947a7f6240094, type: 3}
    - {fileID: 21300000, guid: 4a5db22f909cee740941753cd1d26a13, type: 3}
    - {fileID: 21300000, guid: b88220a0f73e3794ab43f5732aac639c, type: 3}
    - {fileID: 21300000, guid: b51ef70d9b1820c46afccf51abbf7ab8, type: 3}
    - {fileID: 21300000, guid: 194c6271a6fcf9545bbeab6dd50532e3, type: 3}
    - {fileID: 21300000, guid: b90c19dc7527a1d4697d9eac4a9aa9c2, type: 3}
    - {fileID: 21300000, guid: ac72de9a1e51b4f4ea6ed6ae07c5e087, type: 3}
    - {fileID: 21300000, guid: 4a5db22f909cee740941753cd1d26a13, type: 3}
  m_AnimationClipSettings:
    serializedVersion: 2
    m_AdditiveReferencePoseClip: {fileID: 0}
    m_AdditiveReferencePoseTime: 0
    m_StartTime: 0
    m_StopTime: 0.51666665
    m_OrientationOffsetY: 0
    m_Level: 0
    m_CycleOffset: 0
    m_HasAdditiveReferencePose: 0
    m_LoopTime: 0
    m_LoopBlend: 0
    m_LoopBlendOrientation: 0
    m_LoopBlendPositionY: 0
    m_LoopBlendPositionXZ: 0
    m_KeepOriginalOrientation: 0
    m_KeepOriginalPositionY: 1
    m_KeepOriginalPositionXZ: 0
    m_HeightFromFeet: 0
    m_Mirror: 0
  m_EditorCurves: []
  m_EulerEditorCurves: []
  m_HasGenericRootTransform: 0
  m_HasMotionFloatCurves: 0
  m_Events: []
