%YAML 1.1
%TAG !u! tag:unity3d.com,2011:
--- !u!114 &11400000
MonoBehaviour:
  m_ObjectHideFlags: 0
  m_CorrespondingSourceObject: {fileID: 0}
  m_PrefabInstance: {fileID: 0}
  m_PrefabAsset: {fileID: 0}
  m_GameObject: {fileID: 0}
  m_Enabled: 1
  m_EditorHideFlags: 0
  m_Script: {fileID: 11500000, guid: 362af01cc92033448ab3f4b414d4895c, type: 3}
  m_Name: Diagonals
  m_EditorClassIdentifier: 
  ImageLanguage:
  - {fileID: 21300000, guid: bbed057e71d22b74e9f94e2bc1a5ebe7, type: 3}
  - {fileID: 21300000, guid: 3af942e185abb7244ac6e8dfcda95d46, type: 3}
  - {fileID: 21300000, guid: e155b2c5ba68df147a4edc446fdb4f4d, type: 3}
  PressImage:
  - {fileID: 21300000, guid: c79db0a2cba267c4b9d35857f6be214e, type: 3}
  - {fileID: 21300000, guid: 203e30d2ad2f3a54593be0ef15ebc358, type: 3}
  - {fileID: 21300000, guid: f1ec381b014f7644aa9149e0042adc1f, type: 3}
