%YAML 1.1
%TAG !u! tag:unity3d.com,2011:
--- !u!114 &11400000
MonoBehaviour:
  m_ObjectHideFlags: 0
  m_CorrespondingSourceObject: {fileID: 0}
  m_PrefabInstance: {fileID: 0}
  m_PrefabAsset: {fileID: 0}
  m_GameObject: {fileID: 0}
  m_Enabled: 1
  m_EditorHideFlags: 0
  m_Script: {fileID: 11500000, guid: 362af01cc92033448ab3f4b414d4895c, type: 3}
  m_Name: Straight
  m_EditorClassIdentifier: 
  ImageLanguage:
  - {fileID: 21300000, guid: f806e04dcc286594d9c3a9fa364c6031, type: 3}
  - {fileID: 21300000, guid: cad2490f7a4e19646b269e89e9a2b06f, type: 3}
  - {fileID: 21300000, guid: 4579ecbd920986642b22eed90ad853bb, type: 3}
  PressImage:
  - {fileID: 21300000, guid: b90732c963af93c4695d9a0a0e808a28, type: 3}
  - {fileID: 21300000, guid: 3124992792cb672449ae7fc61b86dc8e, type: 3}
  - {fileID: 21300000, guid: f1c59f2cfda3d74449e8199e18cea4bc, type: 3}
