%YAML 1.1
%TAG !u! tag:unity3d.com,2011:
--- !u!74 &7400000
AnimationClip:
  m_ObjectHideFlags: 0
  m_CorrespondingSourceObject: {fileID: 0}
  m_PrefabInstance: {fileID: 0}
  m_PrefabAsset: {fileID: 0}
  m_Name: Star
  serializedVersion: 6
  m_Legacy: 0
  m_Compressed: 0
  m_UseHighQualityCurve: 1
  m_RotationCurves: []
  m_CompressedRotationCurves: []
  m_EulerCurves: []
  m_PositionCurves: []
  m_ScaleCurves: []
  m_FloatCurves: []
  m_PPtrCurves:
  - curve:
    - time: 0
      value: {fileID: 21300000, guid: 9d5b532a5984e574f9fc4fcc7c60bd09, type: 3}
    - time: 0.16666667
      value: {fileID: 21300000, guid: 0c3888f3187256f479e955a3db56807f, type: 3}
    - time: 0.31666666
      value: {fileID: 21300000, guid: 9317658257484e84fb33ea74ca7dabc2, type: 3}
    - time: 0.48333332
      value: {fileID: 21300000, guid: 3b4c0f8855f88cb4a91b85c9250e00e8, type: 3}
    - time: 0.65
      value: {fileID: 21300000, guid: 0404167a6c2414146bac46a47ad268ef, type: 3}
    - time: 0.81666666
      value: {fileID: 21300000, guid: 3a38a95ff84bbed4eb1c795a85c72c75, type: 3}
    - time: 0.96666664
      value: {fileID: 21300000, guid: af7ac9d1f855aed40a7f6b87d04ad578, type: 3}
    - time: 1.1333333
      value: {fileID: 21300000, guid: 686a450652415f347ade16ef7ea0e330, type: 3}
    attribute: m_Sprite
    path: 
    classID: 212
    script: {fileID: 0}
  m_SampleRate: 60
  m_WrapMode: 0
  m_Bounds:
    m_Center: {x: 0, y: 0, z: 0}
    m_Extent: {x: 0, y: 0, z: 0}
  m_ClipBindingConstant:
    genericBindings:
    - serializedVersion: 2
      path: 0
      attribute: 0
      script: {fileID: 0}
      typeID: 212
      customType: 23
      isPPtrCurve: 1
    pptrCurveMapping:
    - {fileID: 21300000, guid: 9d5b532a5984e574f9fc4fcc7c60bd09, type: 3}
    - {fileID: 21300000, guid: 0c3888f3187256f479e955a3db56807f, type: 3}
    - {fileID: 21300000, guid: 9317658257484e84fb33ea74ca7dabc2, type: 3}
    - {fileID: 21300000, guid: 3b4c0f8855f88cb4a91b85c9250e00e8, type: 3}
    - {fileID: 21300000, guid: 0404167a6c2414146bac46a47ad268ef, type: 3}
    - {fileID: 21300000, guid: 3a38a95ff84bbed4eb1c795a85c72c75, type: 3}
    - {fileID: 21300000, guid: af7ac9d1f855aed40a7f6b87d04ad578, type: 3}
    - {fileID: 21300000, guid: 686a450652415f347ade16ef7ea0e330, type: 3}
  m_AnimationClipSettings:
    serializedVersion: 2
    m_AdditiveReferencePoseClip: {fileID: 0}
    m_AdditiveReferencePoseTime: 0
    m_StartTime: 0
    m_StopTime: 1.15
    m_OrientationOffsetY: 0
    m_Level: 0
    m_CycleOffset: 0
    m_HasAdditiveReferencePose: 0
    m_LoopTime: 1
    m_LoopBlend: 0
    m_LoopBlendOrientation: 0
    m_LoopBlendPositionY: 0
    m_LoopBlendPositionXZ: 0
    m_KeepOriginalOrientation: 0
    m_KeepOriginalPositionY: 1
    m_KeepOriginalPositionXZ: 0
    m_HeightFromFeet: 0
    m_Mirror: 0
  m_EditorCurves: []
  m_EulerEditorCurves: []
  m_HasGenericRootTransform: 0
  m_HasMotionFloatCurves: 0
  m_Events: []
