%YAML 1.1
%TAG !u! tag:unity3d.com,2011:
--- !u!114 &11400000
MonoBehaviour:
  m_ObjectHideFlags: 0
  m_CorrespondingSourceObject: {fileID: 0}
  m_PrefabInstance: {fileID: 0}
  m_PrefabAsset: {fileID: 0}
  m_GameObject: {fileID: 0}
  m_Enabled: 1
  m_EditorHideFlags: 0
  m_Script: {fileID: 11500000, guid: 362af01cc92033448ab3f4b414d4895c, type: 3}
  m_Name: Music
  m_EditorClassIdentifier: 
  ImageLanguage:
  - {fileID: 21300000, guid: 3176b4ad1f649ef40a278e7dc84e68bc, type: 3}
  - {fileID: 21300000, guid: 8bb0b52195814b54da886674eb3d1836, type: 3}
  - {fileID: 21300000, guid: 27058b651017e0d4a9aae23e4c749284, type: 3}
