%YAML 1.1
%TAG !u! tag:unity3d.com,2011:
--- !u!114 &11400000
MonoBehaviour:
  m_ObjectHideFlags: 0
  m_CorrespondingSourceObject: {fileID: 0}
  m_PrefabInstance: {fileID: 0}
  m_PrefabAsset: {fileID: 0}
  m_GameObject: {fileID: 0}
  m_Enabled: 1
  m_EditorHideFlags: 0
  m_Script: {fileID: 11500000, guid: 362af01cc92033448ab3f4b414d4895c, type: 3}
  m_Name: OFF
  m_EditorClassIdentifier: 
  ImageLanguage:
  - {fileID: 21300000, guid: 4e3ac8034a49d15458d091635f862efd, type: 3}
  - {fileID: 21300000, guid: 79e7e85c882ff0d468007e8961d2bc0f, type: 3}
  - {fileID: 21300000, guid: 708495a93fc95df4f990b15e00489b8d, type: 3}
  PressImage:
  - {fileID: 21300000, guid: 4e3ac8034a49d15458d091635f862efd, type: 3}
  - {fileID: 21300000, guid: 79e7e85c882ff0d468007e8961d2bc0f, type: 3}
  - {fileID: 21300000, guid: 708495a93fc95df4f990b15e00489b8d, type: 3}
