%YAML 1.1
%TAG !u! tag:unity3d.com,2011:
--- !u!114 &11400000
MonoBehaviour:
  m_ObjectHideFlags: 0
  m_CorrespondingSourceObject: {fileID: 0}
  m_PrefabInstance: {fileID: 0}
  m_PrefabAsset: {fileID: 0}
  m_GameObject: {fileID: 0}
  m_Enabled: 1
  m_EditorHideFlags: 0
  m_Script: {fileID: 11500000, guid: 362af01cc92033448ab3f4b414d4895c, type: 3}
  m_Name: Sharing
  m_EditorClassIdentifier: 
  ImageLanguage:
  - {fileID: 21300000, guid: de9c59680bb84034f838fc0873d7fa44, type: 3}
  - {fileID: 21300000, guid: 43e6c675a44e1684cbcfaec39b699141, type: 3}
  - {fileID: 21300000, guid: 99bf9e2c9f8416a4284cf09ce71f2039, type: 3}
